…
# Status-Quo: Analysts make a choice between directly using indicators or verbose recode

## Current proceedures for recoding indicator variables to a categorial variable is inelegant.

Current methods for recoding indicator variables is repetitive and
verbose, as shown in the examples that follow.

``` r
tidytitanic::passengers %>% 
  tibble() %>% 
  mutate(cat_survived = ifelse(survived, "survived", "not survived"), 
         .before = 1)
#> # A tibble: 1,313 × 6
#>    cat_survived name                                   class   age sex   survi…¹
#>    <chr>        <chr>                                  <chr> <dbl> <chr>   <int>
#>  1 survived     Allen, Miss Elisabeth Walton           1st   29    fema…       1
#>  2 not survived Allison, Miss Helen Loraine            1st    2    fema…       0
#>  3 not survived Allison, Mr Hudson Joshua Creighton    1st   30    male        0
#>  4 not survived Allison, Mrs Hudson JC (Bessie Waldo … 1st   25    fema…       0
#>  5 survived     Allison, Master Hudson Trevor          1st    0.92 male        1
#>  6 survived     Anderson, Mr Harry                     1st   47    male        1
#>  7 survived     Andrews, Miss Kornelia Theodosia       1st   63    fema…       1
#>  8 not survived Andrews, Mr Thomas, jr                 1st   39    male        0
#>  9 survived     Appleton, Mrs Edward Dale (Charlotte … 1st   58    fema…       1
#> 10 not survived Artagaveytia, Mr Ramon                 1st   71    male        0
#> # … with 1,303 more rows, and abbreviated variable name ¹​survived
…
